xsim.log
#-----------------------------------------------------------
# xsim v2017.4 (64-bit)
# SW Build 2086221 on Fri Dec 15 20:54:30 MST 2017
# IP Build 2085800 on Fri Dec 15 22:25:07 MST 2017
# Start of session at: Fri Feb 19 17:14:25 2021
# Process ID: 29053
# Current directory: /mnt/castor/seas_home/f/fatiho/lc4-labs/lab2b-alu
# Command line: xsim -mode tcl -source {xsim.dir/snapshot.sim/xsim_script.tcl}
# Log file: /mnt/castor/seas_home/f/fatiho/lc4-labs/lab2b-alu/xsim.log
# Journal file: /mnt/castor/seas_home/f/fatiho/lc4-labs/lab2b-alu/xsim.jou
#-----------------------------------------------------------
source xsim.dir/snapshot.sim/xsim_script.tcl
# xsim {snapshot.sim} -wdb {sim.wdb} -autoloadwcfg -runall -stats
Vivado Simulator 2017.4
Time resolution is 1 ps
run -all
[alu] error at line 0001: insn = 0000 1010 0011 1011, pc = 0000 0110 0110 0111, r1data = 0100 0110 0110 1000, r2data = 0011 1001 0010 0100, result = zzzz zzzz zzzz zzzz instead of 0000 0110 1010 0011 BRnp 000111011
[alu] error at line 0002: insn = 0000 1011 1100 1000, pc = 1010 1101 0011 1100, r1data = 1110 0100 0110 0101, r2data = 0001 0110 0100 0001, result = zzzz zzzz zzzz zzzz instead of 1010 1101 0000 0101 BRnp 111001000
[alu] error at line 0003: insn = 0000 0110 1100 0000, pc = 0000 0111 1010 0000, r1data = 0011 0111 1111 1000, r2data = 1000 0001 0101 1110, result = zzzz zzzz zzzz zzzz instead of 0000 1000 0110 0001 BRzp 011000000
[alu] error at line 0004: insn = 0000 0000 0110 1100, pc = 0011 0010 1110 0111, r1data = 1010 0110 0101 1110, r2data = 1000 1011 1000 0001, result = zzzz zzzz zzzz zzzz instead of 0011 0011 0101 0100 NOP
[alu] error at line 0005: insn = 0000 0011 1000 0110, pc = 1001 0110 1101 1010, r1data = 1100 1111 0011 0110, r2data = 0000 0001 1010 1001, result = zzzz zzzz zzzz zzzz instead of 1001 0110 0110 0001 BRp 110000110
[alu] error at line 0006: insn = 0000 1100 1110 0100, pc = 1011 0010 1011 1001, r1data = 0101 0111 0001 1010, r2data = 0010 0111 1100 1101, result = zzzz zzzz zzzz zzzz instead of 1011 0011 1001 1110 BRnz 011100100
[alu] error at line 0007: insn = 0000 1111 0101 0000, pc = 0101 0110 0010 1011, r1data = 0001 0111 1011 1110, r2data = 0001 1000 1100 0010, result = zzzz zzzz zzzz zzzz instead of 0101 0101 0111 1100 BRnzp 101010000
[alu] error at line 0008: insn = 0000 1101 1000 1111, pc = 1001 1010 1000 1101, r1data = 1100 1110 1001 1111, r2data = 1011 1010 1100 1111, result = zzzz zzzz zzzz zzzz instead of 1001 1010 0001 1101 BRnz 110001111
[alu] error at line 0009: insn = 0000 1000 1001 0100, pc = 1111 1001 0001 1110, r1data = 0110 0000 1110 0111, r2data = 1000 1101 0101 0010, result = zzzz zzzz zzzz zzzz instead of 1111 1001 1011 0011 BRn 010010100
[alu] error at line 0010: insn = 0000 1101 0100 0101, pc = 1001 1110 0101 0111, r1data = 1101 1100 1001 1000, r2data = 1001 0011 1100 1101, result = zzzz zzzz zzzz zzzz instead of 1001 1101 1001 1101 BRnz 101000101
[alu] error at line 0011: insn = 0000 1011 0100 0101, pc = 0000 1011 1011 1011, r1data = 0011 1010 0101 0111, r2data = 0100 1010 0001 0101, result = zzzz zzzz zzzz zzzz instead of 0000 1011 0000 0001 BRnp 101000101
[alu] error at line 0012: insn = 0000 0001 0100 0110, pc = 0011 1011 1001 1000, r1data = 0001 1001 1101 1011, r2data = 0100 0111 0010 1001, result = zzzz zzzz zzzz zzzz instead of 0011 1010 1101 1111 NOP
[alu] error at line 0013: insn = 0000 1010 0010 1011, pc = 0101 1101 0110 0101, r1data = 0101 1110 1100 0100, r2data = 0011 0101 1010 0010, result = zzzz zzzz zzzz zzzz instead of 0101 1101 1001 0001 BRnp 000101011
[alu] error at line 0014: insn = 0000 0100 0100 0101, pc = 1110 1111 1100 1000, r1data = 1010 0101 1110 0101, r2data = 1001 1011 1111 0000, result = zzzz zzzz zzzz zzzz instead of 1111 0000 0000 1110 BRz 001000101
Additional       13585 errors NOT printed.
Simulation finished:       24112 test cases       13600 errors
<scorePossible>     24112</scorePossible>
<scoreActual>     10512</scoreActual>
$finish called at time : 75526 ns : File "/mnt/castor/seas_home/f/fatiho/lc4-labs/lab2b-alu/testbench_lc4_alu.v" Line 190
exit
INFO: Simulation Memory Usage: 118068 KB (Peak: 179504 KB)
INFO: Simulation CPU Usage: 90 ms
INFO: [Common 17-206] Exiting xsim at Fri Feb 19 17:14:32 2021...
